<svg xmlns="http://www.w3.org/2000/svg" width="175.711" height="49.867" viewBox="0 0 175.711 49.867">
    <defs>
        <style>
            .cls-1{fill:#fbe82f;fill-rule:evenodd}.cls-2{fill:#005a9f}
        </style>
    </defs>
    <g id="Brasilcap_cor" transform="translate(-24 -343.9)">
        <path id="Caminho_1913" d="M24 343.9h175.711v49.868H24z" class="cls-1" data-name="Caminho 1913"/>
        <g id="Grupo_1057" data-name="Grupo 1057" transform="translate(36.475 356.375)">
            <path id="Caminho_1914" d="M174.5 401.937c0-1.415.965-2.186 2.6-2.186h6.848V396.6h-7.459c-6.141 0-7.652 2.476-7.652 5.691 0 6.109 10.16 5.691 10.16 9.388a2.238 2.238 0 0 1-2.54 2.347h-6.623l-5.915-17.426h-7.009l-6.21 18.134-3.826-7.491c2.99-.482 4.148-2.186 4.18-5.273 0-3.5-2.315-5.369-5.948-5.369H134.5v20.481h5.305v-17.33h3.183c1.7 0 2.765 1.093 2.765 3.119 0 1.7-1.029 3.119-2.636 3.022l-2.186.032 5.723 11.157h8.456l1.447-4.533h7.234l1.415 4.533h11.671c3.858 0 7.749-.45 7.749-5.723-.001-6.459-10.126-5.531-10.126-9.422zm-16.848 7.684l2.411-8.842h.064l2.572 8.842z" class="cls-2" data-name="Caminho 1914" transform="translate(-111.447 -392.131)"/>
            <path id="Caminho_1915" d="M78.04 394.725v-.064c3.5-.547 5.273-2.6 5.273-5.5 0-5.337-4.083-6.463-9-6.463H62.8v24.982h11.446c2.733 0 9.581-.257 9.581-6.591 0-3.47-1.221-5.85-5.787-6.364zm-8.777-8.167h4.019c2.154.032 3.7 1.383 3.7 3.183a3.142 3.142 0 0 1-3.376 3.183l-4.341.032zm4.051 17.3h-4.019v-7.041l4.019-.032c3.054.064 4.019 1.415 4.019 3.569 0 3.146-2.54 3.47-4.019 3.502z" class="cls-2" data-name="Caminho 1915" transform="translate(-62.8 -382.7)"/>
            <path id="Caminho_1916" d="M490.013 396.6H480.4v20.481h5.337v-8.327h3.955c6.27 0 7.106-3.7 7.106-6.012.002-3.763-1.93-6.142-6.785-6.142zm-1.318 9.035h-2.958v-5.852h2.829c2.283.064 2.829 1.447 2.829 3.087a2.77 2.77 0 0 1-2.695 2.765z" class="cls-2" data-name="Caminho 1916" transform="translate(-346.133 -392.131)"/>
            <path id="Retângulo_1303" d="M0 0h5.305v20.481H0z" class="cls-2" data-name="Retângulo 1303" transform="translate(75.139 4.469)"/>
            <path id="Caminho_1917" d="M420.141 396.6l-7.041 20.481h5.241l1.447-4.533h7.266l1.415 4.533h5.594l-6.88-20.481zm.74 12.829l2.411-8.842h.064l2.572 8.842z" class="cls-2" data-name="Caminho 1917" transform="translate(-300.472 -392.131)"/>
            <path id="Caminho_1918" d="M379.487 409.379h-5.337c-.064 1.672.032 4.244-2.444 4.244-3.054 0-3.44-2.315-3.44-7.652s.386-7.652 3.44-7.652c1.608 0 2.219 1.029 2.219 3.826h5.305c.225-4.469-2.026-6.945-7.524-6.945-6.752 0-8.392 3.022-8.777 6.848a38.99 38.99 0 0 0-.129 3.923 38.031 38.031 0 0 0 .129 3.89c.386 3.858 2.026 6.881 8.777 6.881 4.18 0 6.784-1.222 7.556-4.791a15.319 15.319 0 0 0 .225-2.572z" class="cls-2" data-name="Caminho 1918" transform="translate(-266.344 -391.181)"/>
            <path id="Caminho_1919" d="M329.437 414.026V396.6H324.1v20.481h12.668v-3.054z" class="cls-2" data-name="Caminho 1919" transform="translate(-240.087 -392.131)"/>
        </g>
    </g>
</svg>
