<svg xmlns="http://www.w3.org/2000/svg" id="Notification_Icon" width="88.002" height="102.029" data-name="Notification Icon" viewBox="0 0 88.002 102.029">
    <defs>
        <style>
            .cls-1{fill:#fac300;fill-rule:evenodd}
        </style>
    </defs>
    <path id="Caminho_1615" d="M27.913 256.449c6.743 13.165 25.367 13.165 31.789 0h26.009c1.606 0 2.89-1.927 1.927-3.211-2.89-4.5-4.816-8.027-6.743-11.238H6.72c-1.605 3.211-3.853 6.743-6.42 11.238-.963 1.284.321 3.211 1.927 3.211z" class="cls-1" data-name="Caminho 1615" transform="translate(.033 -164.294)"/>
    <path id="Caminho_1616" d="M98.357 73.21C94.825 65.825 94.5 60.367 94.5 45.917A30.341 30.341 0 0 0 72.348 16.7V8.67c0-11.56-17.339-11.56-17.339 0v8.03a30.341 30.341 0 0 0-22.156 29.22c0 14.449-.321 19.908-3.853 27.293h4.5c2.569-6.1 2.89-11.881 2.89-24.725a29.947 29.947 0 0 1 19.903-28.58v2.569a27.931 27.931 0 0 0-17.66 26.009c0 8.991.321 16.7-2.569 24.725z" class="cls-1" data-name="Caminho 1616" transform="translate(-19.677)"/>
</svg>
